{
  "cod": "200",
  "message": 0.0061,
  "city": {
    "id": 5809844,
    "name": "Seattle",
    "coord": {
      "lon": -122.332069,
      "lat": 47.606209
    },
    "country": "US",
    "population": 608660
  },
  "cnt": 41,
  "list": [
    {
      "dt": 1429380000,
      "main": {
        "temp": 59.4,
        "temp_min": 59.39,
        "temp_max": 59.4,
        "pressure": 1028.68,
        "sea_level": 1040.37,
        "grnd_level": 1028.68,
        "humidity": 57,
        "temp_kf": 0
      },
      "weather": [
        {
          "id": 800,
          "main": "Clear",
          "description": "sky is clear",
          "icon": "01d"
        }
      ],
      "clouds": {
        "all": 0
      },
      "wind": {
        "speed": 4.08,
        "deg": 358.001
      },
      "sys": {
        "pod": "d"
      },
      "dt_txt": "2015-04-18 18:00:00"
    },
    {
      "dt": 1429390800,
      "main": {
        "temp": 63.79,
        "temp_min": 63.79,
        "temp_max": 63.8,
        "pressure": 1027.98,
        "sea_level": 1039.43,
        "grnd_level": 1027.98,
        "humidity": 48,
        "temp_kf": 0
      },
      "weather": [
        {
          "id": 800,
          "main": "Clear",
          "description": "sky is clear",
          "icon": "01d"
        }
      ],
      "clouds": {
        "all": 0
      },
      "wind": {
        "speed": 5.23,
        "deg": 357.505
      },
      "sys": {
        "pod": "d"
      },
      "dt_txt": "2015-04-18 21:00:00"
    },
    {
      "dt": 1429401600,
      "main": {
        "temp": 64.63,
        "temp_min": 64.63,
        "temp_max": 64.64,
        "pressure": 1026.74,
        "sea_level": 1038.2,
        "grnd_level": 1026.74,
        "humidity": 40,
        "temp_kf": 0
      },
      "weather": [
        {
          "id": 800,
          "main": "Clear",
          "description": "sky is clear",
          "icon": "01n"
        }
      ],
      "clouds": {
        "all": 0
      },
      "wind": {
        "speed": 4.88,
        "deg": 1.50085
      },
      "sys": {
        "pod": "n"
      },
      "dt_txt": "2015-04-19 00:00:00"
    },
    {
      "dt": 1429412400,
      "main": {
        "temp": 58.23,
        "temp_min": 58.23,
        "temp_max": 58.23,
        "pressure": 1025.64,
        "sea_level": 1037.45,
        "grnd_level": 1025.64,
        "humidity": 42,
        "temp_kf": 0
      },
      "weather": [
        {
          "id": 800,
          "main": "Clear",
          "description": "sky is clear",
          "icon": "01n"
        }
      ],
      "clouds": {
        "all": 0
      },
      "wind": {
        "speed": 5.12,
        "deg": 6.00009
      },
      "sys": {
        "pod": "n"
      },
      "dt_txt": "2015-04-19 03:00:00"
    },
    {
      "dt": 1429423200,
      "main": {
        "temp": 50.14,
        "temp_min": 50.14,
        "temp_max": 50.15,
        "pressure": 1025.53,
        "sea_level": 1037.55,
        "grnd_level": 1025.53,
        "humidity": 62,
        "temp_kf": 0
      },
      "weather": [
        {
          "id": 800,
          "main": "Clear",
          "description": "sky is clear",
          "icon": "01n"
        }
      ],
      "clouds": {
        "all": 0
      },
      "wind": {
        "speed": 5.44,
        "deg": 6.00018
      },
      "sys": {
        "pod": "n"
      },
      "dt_txt": "2015-04-19 06:00:00"
    },
    {
      "dt": 1429434000,
      "main": {
        "temp": 44.32,
        "temp_min": 44.32,
        "temp_max": 44.32,
        "pressure": 1025.13,
        "sea_level": 1037.22,
        "grnd_level": 1025.13,
        "humidity": 89
      },
      "weather": [
        {
          "id": 800,
          "main": "Clear",
          "description": "sky is clear",
          "icon": "02n"
        }
      ],
      "clouds": {
        "all": 8
      },
      "wind": {
        "speed": 3.69,
        "deg": 5.5015
      },
      "sys": {
        "pod": "n"
      },
      "dt_txt": "2015-04-19 09:00:00"
    },
    {
      "dt": 1429444800,
      "main": {
        "temp": 41.41,
        "temp_min": 41.41,
        "temp_max": 41.41,
        "pressure": 1024.63,
        "sea_level": 1036.84,
        "grnd_level": 1024.63,
        "humidity": 92
      },
      "weather": [
        {
          "id": 801,
          "main": "Clouds",
          "description": "few clouds",
          "icon": "02n"
        }
      ],
      "clouds": {
        "all": 12
      },
      "wind": {
        "speed": 3.5,
        "deg": 5.00705
      },
      "sys": {
        "pod": "n"
      },
      "dt_txt": "2015-04-19 12:00:00"
    },
    {
      "dt": 1429455600,
      "main": {
        "temp": 47.39,
        "temp_min": 47.39,
        "temp_max": 47.39,
        "pressure": 1024.14,
        "sea_level": 1036.28,
        "grnd_level": 1024.14,
        "humidity": 84
      },
      "weather": [
        {
          "id": 801,
          "main": "Clouds",
          "description": "few clouds",
          "icon": "02d"
        }
      ],
      "clouds": {
        "all": 12
      },
      "wind": {
        "speed": 3.35,
        "deg": 21.5086
      },
      "sys": {
        "pod": "d"
      },
      "dt_txt": "2015-04-19 15:00:00"
    },
    {
      "dt": 1429466400,
      "main": {
        "temp": 61.49,
        "temp_min": 61.49,
        "temp_max": 61.49,
        "pressure": 1023.25,
        "sea_level": 1034.83,
        "grnd_level": 1023.25,
        "humidity": 52
      },
      "weather": [
        {
          "id": 800,
          "main": "Clear",
          "description": "sky is clear",
          "icon": "01d"
        }
      ],
      "clouds": {
        "all": 0
      },
      "wind": {
        "speed": 3.67,
        "deg": 4.504
      },
      "sys": {
        "pod": "d"
      },
      "dt_txt": "2015-04-19 18:00:00"
    },
    {
      "dt": 1429477200,
      "main": {
        "temp": 66.86,
        "temp_min": 66.86,
        "temp_max": 66.86,
        "pressure": 1021.24,
        "sea_level": 1032.84,
        "grnd_level": 1021.24,
        "humidity": 43
      },
      "weather": [
        {
          "id": 800,
          "main": "Clear",
          "description": "sky is clear",
          "icon": "01d"
        }
      ],
      "clouds": {
        "all": 0
      },
      "wind": {
        "speed": 4.45,
        "deg": 2.00348
      },
      "sys": {
        "pod": "d"
      },
      "dt_txt": "2015-04-19 21:00:00"
    },
    {
      "dt": 1429488000,
      "main": {
        "temp": 67.76,
        "temp_min": 67.76,
        "temp_max": 67.76,
        "pressure": 1019.64,
        "sea_level": 1031.17,
        "grnd_level": 1019.64,
        "humidity": 37
      },
      "weather": [
        {
          "id": 800,
          "main": "Clear",
          "description": "sky is clear",
          "icon": "01n"
        }
      ],
      "clouds": {
        "all": 0
      },
      "wind": {
        "speed": 5.42,
        "deg": 4.00592
      },
      "sys": {
        "pod": "n"
      },
      "dt_txt": "2015-04-20 00:00:00"
    },
    {
      "dt": 1429498800,
      "main": {
        "temp": 60.99,
        "temp_min": 60.99,
        "temp_max": 60.99,
        "pressure": 1018.42,
        "sea_level": 1030.16,
        "grnd_level": 1018.42,
        "humidity": 40
      },
      "weather": [
        {
          "id": 800,
          "main": "Clear",
          "description": "sky is clear",
          "icon": "01n"
        }
      ],
      "clouds": {
        "all": 0
      },
      "wind": {
        "speed": 5.03,
        "deg": 3.50354
      },
      "sys": {
        "pod": "n"
      },
      "dt_txt": "2015-04-20 03:00:00"
    },
    {
      "dt": 1429509600,
      "main": {
        "temp": 51.72,
        "temp_min": 51.72,
        "temp_max": 51.72,
        "pressure": 1017.98,
        "sea_level": 1029.85,
        "grnd_level": 1017.98,
        "humidity": 61
      },
      "weather": [
        {
          "id": 800,
          "main": "Clear",
          "description": "sky is clear",
          "icon": "01n"
        }
      ],
      "clouds": {
        "all": 0
      },
      "wind": {
        "speed": 4.99,
        "deg": 357.006
      },
      "sys": {
        "pod": "n"
      },
      "dt_txt": "2015-04-20 06:00:00"
    },
    {
      "dt": 1429520400,
      "main": {
        "temp": 45.52,
        "temp_min": 45.52,
        "temp_max": 45.52,
        "pressure": 1017.4,
        "sea_level": 1029.29,
        "grnd_level": 1017.4,
        "humidity": 88
      },
      "weather": [
        {
          "id": 801,
          "main": "Clouds",
          "description": "few clouds",
          "icon": "02n"
        }
      ],
      "clouds": {
        "all": 20
      },
      "wind": {
        "speed": 2.76,
        "deg": 3.00659
      },
      "sys": {
        "pod": "n"
      },
      "dt_txt": "2015-04-20 09:00:00"
    },
    {
      "dt": 1429531200,
      "main": {
        "temp": 42.94,
        "temp_min": 42.94,
        "temp_max": 42.94,
        "pressure": 1016.54,
        "sea_level": 1028.67,
        "grnd_level": 1016.54,
        "humidity": 93
      },
      "weather": [
        {
          "id": 801,
          "main": "Clouds",
          "description": "few clouds",
          "icon": "02n"
        }
      ],
      "clouds": {
        "all": 12
      },
      "wind": {
        "speed": 2.4,
        "deg": 2.00247
      },
      "sys": {
        "pod": "n"
      },
      "dt_txt": "2015-04-20 12:00:00"
    },
    {
      "dt": 1429542000,
      "main": {
        "temp": 48.84,
        "temp_min": 48.84,
        "temp_max": 48.84,
        "pressure": 1016.19,
        "sea_level": 1028.09,
        "grnd_level": 1016.19,
        "humidity": 85
      },
      "weather": [
        {
          "id": 800,
          "main": "Clear",
          "description": "sky is clear",
          "icon": "02d"
        }
      ],
      "clouds": {
        "all": 8
      },
      "wind": {
        "speed": 2.42,
        "deg": 356.502
      },
      "sys": {
        "pod": "d"
      },
      "dt_txt": "2015-04-20 15:00:00"
    },
    {
      "dt": 1429552800,
      "main": {
        "temp": 62.5,
        "temp_min": 62.5,
        "temp_max": 62.5,
        "pressure": 1015.51,
        "sea_level": 1027.02,
        "grnd_level": 1015.51,
        "humidity": 52
      },
      "weather": [
        {
          "id": 800,
          "main": "Clear",
          "description": "sky is clear",
          "icon": "01d"
        }
      ],
      "clouds": {
        "all": 0
      },
      "wind": {
        "speed": 2.85,
        "deg": 349.501
      },
      "sys": {
        "pod": "d"
      },
      "dt_txt": "2015-04-20 18:00:00"
    },
    {
      "dt": 1429563600,
      "main": {
        "temp": 68.06,
        "temp_min": 68.06,
        "temp_max": 68.06,
        "pressure": 1013.92,
        "sea_level": 1025.54,
        "grnd_level": 1013.92,
        "humidity": 44
      },
      "weather": [
        {
          "id": 800,
          "main": "Clear",
          "description": "sky is clear",
          "icon": "01d"
        }
      ],
      "clouds": {
        "all": 0
      },
      "wind": {
        "speed": 3.05,
        "deg": 334.004
      },
      "sys": {
        "pod": "d"
      },
      "dt_txt": "2015-04-20 21:00:00"
    },
    {
      "dt": 1429574400,
      "main": {
        "temp": 69.43,
        "temp_min": 69.43,
        "temp_max": 69.43,
        "pressure": 1012.79,
        "sea_level": 1024.41,
        "grnd_level": 1012.79,
        "humidity": 39
      },
      "weather": [
        {
          "id": 800,
          "main": "Clear",
          "description": "sky is clear",
          "icon": "01n"
        }
      ],
      "clouds": {
        "all": 0
      },
      "wind": {
        "speed": 2.85,
        "deg": 321.504
      },
      "sys": {
        "pod": "n"
      },
      "dt_txt": "2015-04-21 00:00:00"
    },
    {
      "dt": 1429585200,
      "main": {
        "temp": 62.25,
        "temp_min": 62.25,
        "temp_max": 62.25,
        "pressure": 1012.39,
        "sea_level": 1024.08,
        "grnd_level": 1012.39,
        "humidity": 49
      },
      "weather": [
        {
          "id": 800,
          "main": "Clear",
          "description": "sky is clear",
          "icon": "01n"
        }
      ],
      "clouds": {
        "all": 0
      },
      "wind": {
        "speed": 2.07,
        "deg": 309.002
      },
      "sys": {
        "pod": "n"
      },
      "dt_txt": "2015-04-21 03:00:00"
    },
    {
      "dt": 1429596000,
      "main": {
        "temp": 51.98,
        "temp_min": 51.98,
        "temp_max": 51.98,
        "pressure": 1013.38,
        "sea_level": 1025.2,
        "grnd_level": 1013.38,
        "humidity": 72
      },
      "weather": [
        {
          "id": 800,
          "main": "Clear",
          "description": "sky is clear",
          "icon": "01n"
        }
      ],
      "clouds": {
        "all": 0
      },
      "wind": {
        "speed": 2.05,
        "deg": 306.504
      },
      "sys": {
        "pod": "n"
      },
      "dt_txt": "2015-04-21 06:00:00"
    },
    {
      "dt": 1429606800,
      "main": {
        "temp": 48.12,
        "temp_min": 48.12,
        "temp_max": 48.12,
        "pressure": 1014.36,
        "sea_level": 1026.18,
        "grnd_level": 1014.36,
        "humidity": 89
      },
      "weather": [
        {
          "id": 800,
          "main": "Clear",
          "description": "sky is clear",
          "icon": "01n"
        }
      ],
      "clouds": {
        "all": 0
      },
      "wind": {
        "speed": 4.99,
        "deg": 192.5
      },
      "sys": {
        "pod": "n"
      },
      "dt_txt": "2015-04-21 09:00:00"
    },
    {
      "dt": 1429617600,
      "main": {
        "temp": 47.13,
        "temp_min": 47.13,
        "temp_max": 47.13,
        "pressure": 1015.3,
        "sea_level": 1027.14,
        "grnd_level": 1015.3,
        "humidity": 98
      },
      "weather": [
        {
          "id": 800,
          "main": "Clear",
          "description": "sky is clear",
          "icon": "02n"
        }
      ],
      "clouds": {
        "all": 8
      },
      "wind": {
        "speed": 5.88,
        "deg": 181.002
      },
      "sys": {
        "pod": "n"
      },
      "dt_txt": "2015-04-21 12:00:00"
    },
    {
      "dt": 1429628400,
      "main": {
        "temp": 50.58,
        "temp_min": 50.58,
        "temp_max": 50.58,
        "pressure": 1016.22,
        "sea_level": 1027.84,
        "grnd_level": 1016.22,
        "humidity": 90
      },
      "weather": [
        {
          "id": 500,
          "main": "Rain",
          "description": "light rain",
          "icon": "10d"
        }
      ],
      "clouds": {
        "all": 80
      },
      "wind": {
        "speed": 4.58,
        "deg": 181.504
      },
      "rain": {
        "3h": 0.09
      },
      "sys": {
        "pod": "d"
      },
      "dt_txt": "2015-04-21 15:00:00"
    },
    {
      "dt": 1429639200,
      "main": {
        "temp": 55.24,
        "temp_min": 55.24,
        "temp_max": 55.24,
        "pressure": 1016.7,
        "sea_level": 1028.14,
        "grnd_level": 1016.7,
        "humidity": 77
      },
      "weather": [
        {
          "id": 500,
          "main": "Rain",
          "description": "light rain",
          "icon": "10d"
        }
      ],
      "clouds": {
        "all": 80
      },
      "wind": {
        "speed": 4.23,
        "deg": 184.004
      },
      "rain": {
        "3h": 0.18
      },
      "sys": {
        "pod": "d"
      },
      "dt_txt": "2015-04-21 18:00:00"
    },
    {
      "dt": 1429650000,
      "main": {
        "temp": 58.38,
        "temp_min": 58.38,
        "temp_max": 58.38,
        "pressure": 1016.25,
        "sea_level": 1027.88,
        "grnd_level": 1016.25,
        "humidity": 70
      },
      "weather": [
        {
          "id": 500,
          "main": "Rain",
          "description": "light rain",
          "icon": "10d"
        }
      ],
      "clouds": {
        "all": 92
      },
      "wind": {
        "speed": 4.21,
        "deg": 204.002
      },
      "rain": {
        "3h": 0.08
      },
      "sys": {
        "pod": "d"
      },
      "dt_txt": "2015-04-21 21:00:00"
    },
    {
      "dt": 1429660800,
      "main": {
        "temp": 58.43,
        "temp_min": 58.43,
        "temp_max": 58.43,
        "pressure": 1015.74,
        "sea_level": 1027.59,
        "grnd_level": 1015.74,
        "humidity": 71
      },
      "weather": [
        {
          "id": 500,
          "main": "Rain",
          "description": "light rain",
          "icon": "10n"
        }
      ],
      "clouds": {
        "all": 92
      },
      "wind": {
        "speed": 1.88,
        "deg": 297.001
      },
      "rain": {
        "3h": 0.21
      },
      "sys": {
        "pod": "n"
      },
      "dt_txt": "2015-04-22 00:00:00"
    },
    {
      "dt": 1429671600,
      "main": {
        "temp": 51.49,
        "temp_min": 51.49,
        "temp_max": 51.49,
        "pressure": 1016.7,
        "sea_level": 1028.32,
        "grnd_level": 1016.7,
        "humidity": 93
      },
      "weather": [
        {
          "id": 500,
          "main": "Rain",
          "description": "light rain",
          "icon": "10n"
        }
      ],
      "clouds": {
        "all": 92
      },
      "wind": {
        "speed": 6.39,
        "deg": 12.0026
      },
      "rain": {
        "3h": 2.05
      },
      "sys": {
        "pod": "n"
      },
      "dt_txt": "2015-04-22 03:00:00"
    },
    {
      "dt": 1429682400,
      "main": {
        "temp": 48.08,
        "temp_min": 48.08,
        "temp_max": 48.08,
        "pressure": 1018.55,
        "sea_level": 1030.27,
        "grnd_level": 1018.55,
        "humidity": 88
      },
      "weather": [
        {
          "id": 500,
          "main": "Rain",
          "description": "light rain",
          "icon": "10n"
        }
      ],
      "clouds": {
        "all": 92
      },
      "wind": {
        "speed": 5.31,
        "deg": 35.014
      },
      "rain": {
        "3h": 0.88
      },
      "sys": {
        "pod": "n"
      },
      "dt_txt": "2015-04-22 06:00:00"
    },
    {
      "dt": 1429693200,
      "main": {
        "temp": 46.76,
        "temp_min": 46.76,
        "temp_max": 46.76,
        "pressure": 1019.28,
        "sea_level": 1030.97,
        "grnd_level": 1019.28,
        "humidity": 88
      },
      "weather": [
        {
          "id": 500,
          "main": "Rain",
          "description": "light rain",
          "icon": "10n"
        }
      ],
      "clouds": {
        "all": 92
      },
      "wind": {
        "speed": 4.23,
        "deg": 67.5001
      },
      "rain": {
        "3h": 0.29
      },
      "sys": {
        "pod": "n"
      },
      "dt_txt": "2015-04-22 09:00:00"
    },
    {
      "dt": 1429704000,
      "main": {
        "temp": 46.24,
        "temp_min": 46.24,
        "temp_max": 46.24,
        "pressure": 1020.14,
        "sea_level": 1031.93,
        "grnd_level": 1020.14,
        "humidity": 87
      },
      "weather": [
        {
          "id": 500,
          "main": "Rain",
          "description": "light rain",
          "icon": "10n"
        }
      ],
      "clouds": {
        "all": 68
      },
      "wind": {
        "speed": 2.7,
        "deg": 63.0049
      },
      "rain": {
        "3h": 0.1
      },
      "sys": {
        "pod": "n"
      },
      "dt_txt": "2015-04-22 12:00:00"
    },
    {
      "dt": 1429714800,
      "main": {
        "temp": 47.23,
        "temp_min": 47.23,
        "temp_max": 47.23,
        "pressure": 1021.01,
        "sea_level": 1032.85,
        "grnd_level": 1021.01,
        "humidity": 87
      },
      "weather": [
        {
          "id": 500,
          "main": "Rain",
          "description": "light rain",
          "icon": "10d"
        }
      ],
      "clouds": {
        "all": 68
      },
      "wind": {
        "speed": 2.42,
        "deg": 49.0004
      },
      "rain": {
        "3h": 0.01
      },
      "sys": {
        "pod": "d"
      },
      "dt_txt": "2015-04-22 15:00:00"
    },
    {
      "dt": 1429725600,
      "main": {
        "temp": 53.3,
        "temp_min": 53.3,
        "temp_max": 53.3,
        "pressure": 1021.24,
        "sea_level": 1032.95,
        "grnd_level": 1021.24,
        "humidity": 69
      },
      "weather": [
        {
          "id": 500,
          "main": "Rain",
          "description": "light rain",
          "icon": "10d"
        }
      ],
      "clouds": {
        "all": 8
      },
      "wind": {
        "speed": 3.82,
        "deg": 1.00043
      },
      "rain": {
        "3h": 0.02
      },
      "sys": {
        "pod": "d"
      },
      "dt_txt": "2015-04-22 18:00:00"
    },
    {
      "dt": 1429736400,
      "main": {
        "temp": 56.16,
        "temp_min": 56.16,
        "temp_max": 56.16,
        "pressure": 1020.41,
        "sea_level": 1031.89,
        "grnd_level": 1020.41,
        "humidity": 62
      },
      "weather": [
        {
          "id": 800,
          "main": "Clear",
          "description": "sky is clear",
          "icon": "02d"
        }
      ],
      "clouds": {
        "all": 8
      },
      "wind": {
        "speed": 3.26,
        "deg": 327.004
      },
      "rain": {
        "3h": 0
      },
      "sys": {
        "pod": "d"
      },
      "dt_txt": "2015-04-22 21:00:00"
    },
    {
      "dt": 1429747200,
      "main": {
        "temp": 56.66,
        "temp_min": 56.66,
        "temp_max": 56.66,
        "pressure": 1019.25,
        "sea_level": 1030.63,
        "grnd_level": 1019.25,
        "humidity": 58
      },
      "weather": [
        {
          "id": 800,
          "main": "Clear",
          "description": "sky is clear",
          "icon": "01n"
        }
      ],
      "clouds": {
        "all": 0
      },
      "wind": {
        "speed": 3.52,
        "deg": 318.51
      },
      "rain": {
        "3h": 0
      },
      "sys": {
        "pod": "n"
      },
      "dt_txt": "2015-04-23 00:00:00"
    },
    {
      "dt": 1429758000,
      "main": {
        "temp": 51.91,
        "temp_min": 51.91,
        "temp_max": 51.91,
        "pressure": 1017.56,
        "sea_level": 1029.46,
        "grnd_level": 1017.56,
        "humidity": 60
      },
      "weather": [
        {
          "id": 800,
          "main": "Clear",
          "description": "sky is clear",
          "icon": "01n"
        }
      ],
      "clouds": {
        "all": 0
      },
      "wind": {
        "speed": 2.42,
        "deg": 347.502
      },
      "rain": {
        "3h": 0
      },
      "sys": {
        "pod": "n"
      },
      "dt_txt": "2015-04-23 03:00:00"
    },
    {
      "dt": 1429768800,
      "main": {
        "temp": 44.15,
        "temp_min": 44.15,
        "temp_max": 44.15,
        "pressure": 1016.89,
        "sea_level": 1028.94,
        "grnd_level": 1016.89,
        "humidity": 66
      },
      "weather": [
        {
          "id": 800,
          "main": "Clear",
          "description": "sky is clear",
          "icon": "02n"
        }
      ],
      "clouds": {
        "all": 8
      },
      "wind": {
        "speed": 3.8,
        "deg": 38.5005
      },
      "rain": {
        "3h": 0
      },
      "sys": {
        "pod": "n"
      },
      "dt_txt": "2015-04-23 06:00:00"
    },
    {
      "dt": 1429779600,
      "main": {
        "temp": 40.37,
        "temp_min": 40.37,
        "temp_max": 40.37,
        "pressure": 1015.45,
        "sea_level": 1027.56,
        "grnd_level": 1015.45,
        "humidity": 82
      },
      "weather": [
        {
          "id": 802,
          "main": "Clouds",
          "description": "scattered clouds",
          "icon": "03n"
        }
      ],
      "clouds": {
        "all": 32
      },
      "wind": {
        "speed": 1.1,
        "deg": 71.0024
      },
      "rain": {
        "3h": 0
      },
      "sys": {
        "pod": "n"
      },
      "dt_txt": "2015-04-23 09:00:00"
    },
    {
      "dt": 1429790400,
      "main": {
        "temp": 40.9,
        "temp_min": 40.9,
        "temp_max": 40.9,
        "pressure": 1014.81,
        "sea_level": 1026.77,
        "grnd_level": 1014.81,
        "humidity": 93
      },
      "weather": [
        {
          "id": 801,
          "main": "Clouds",
          "description": "few clouds",
          "icon": "02n"
        }
      ],
      "clouds": {
        "all": 24
      },
      "wind": {
        "speed": 4.45,
        "deg": 215.012
      },
      "rain": {
        "3h": 0
      },
      "sys": {
        "pod": "n"
      },
      "dt_txt": "2015-04-23 12:00:00"
    },
    {
      "dt": 1429801200,
      "main": {
        "temp": 43.66,
        "temp_min": 43.66,
        "temp_max": 43.66,
        "pressure": 1014.45,
        "sea_level": 1026.31,
        "grnd_level": 1014.45,
        "humidity": 89
      },
      "weather": [
        {
          "id": 802,
          "main": "Clouds",
          "description": "scattered clouds",
          "icon": "03d"
        }
      ],
      "clouds": {
        "all": 48
      },
      "wind": {
        "speed": 5.21,
        "deg": 183.002
      },
      "rain": {
        "3h": 0
      },
      "sys": {
        "pod": "d"
      },
      "dt_txt": "2015-04-23 15:00:00"
    },
    {
      "dt": 1429812000,
      "main": {
        "temp": 50.87,
        "temp_min": 50.87,
        "temp_max": 50.87,
        "pressure": 1013.33,
        "sea_level": 1024.95,
        "grnd_level": 1013.33,
        "humidity": 70
      },
      "weather": [
        {
          "id": 803,
          "main": "Clouds",
          "description": "broken clouds",
          "icon": "04d"
        }
      ],
      "clouds": {
        "all": 80
      },
      "wind": {
        "speed": 4.45,
        "deg": 200.001
      },
      "rain": {
        "3h": 0
      },
      "sys": {
        "pod": "d"
      },
      "dt_txt": "2015-04-23 18:00:00"
    }
  ]
}